Label,# Samples,Average,Min,Max,Std. Dev.,Error %,Throughput,Received KB/sec,Sent KB/sec,Avg. Bytes
Mysql single insert,4055,7605,391,16497,2627.97,2.022%,222.98598,54.01,49.50,248.0
Mongo single insert,4055,3624,0,9273,2553.53,2.022%,278.23521,67.39,61.76,248.0
TOTAL,8110,5614,0,16497,3267.51,2.022%,436.63185,105.75,96.92,248.0
